pilot_analysis_exposure
…
## `summarise()` has grouped output by 'prolific_id'. You can override using the `.groups` argument.

## # A tibble: 336 x 3
## # Groups:   prolific_id [16]
##    prolific_id dist_abs_from_prev     n
##    <chr>       <fct>              <int>
##  1 sub_01      0                      1
##  2 sub_01      2                      1
##  3 sub_01      4                      1
##  4 sub_01      6                      1
##  5 sub_01      8                      1
##  6 sub_01      10                     1
##  7 sub_01      12                     1
##  8 sub_01      14                     1
##  9 sub_01      16                     1
## 10 sub_01      18                     1
## # ... with 326 more rows
…
